…
But these data is not fully “tidy”: both the route number and route
should be treated as variables. To make the dataset tidy, we need to
reshape the route variables from wide to long format. This restructuring
is helpful when analyzing specific routes.

The below code shows that the number of distinct stations identified
both by name and line, where we use the `distinct()` fuction.

``` r
nyc_df |> 
  select(station_name, line) |> 
  distinct()
```

    ## # A tibble: 465 × 2
    ##    station_name             line    
    ##    <chr>                    <chr>   
    ##  1 25th St                  4 Avenue
    ##  2 36th St                  4 Avenue
    ##  3 45th St                  4 Avenue
    ##  4 53rd St                  4 Avenue
    ##  5 59th St                  4 Avenue
    ##  6 77th St                  4 Avenue
    ##  7 86th St                  4 Avenue
    ##  8 95th St                  4 Avenue
    ##  9 9th St                   4 Avenue
    ## 10 Atlantic Av-Barclays Ctr 4 Avenue
    ## # ℹ 455 more rows

The following code chunk illustrates the number of stations which are
ADA compliant. Firstly, we filter the rows where `ada == TRUE`. And we
do the similar steps to the above code chunk.

``` r
nyc_df |> 
  filter(ada == TRUE) |> 
  select(station_name, line) |> 
  distinct()
```

    ## # A tibble: 84 × 2
    ##    station_name                   line           
    ##    <chr>                          <chr>          
    ##  1 Atlantic Av-Barclays Ctr       4 Avenue       
    ##  2 DeKalb Av                      4 Avenue       
    ##  3 Pacific St                     4 Avenue       
    ##  4 Grand Central                  42nd St Shuttle
    ##  5 34th St                        6 Avenue       
    ##  6 47-50th Sts Rockefeller Center 6 Avenue       
    ##  7 Church Av                      6 Avenue       
    ##  8 21st St                        63rd Street    
    ##  9 Lexington Av                   63rd Street    
    ## 10 Roosevelt Island               63rd Street    
    ## # ℹ 74 more rows
…
